[gd_scene load_steps=5 format=3 uid="uid://dl5meumnajevi"]

[ext_resource type="Script" path="res://levels/transition.gd" id="1_fq0re"]
[ext_resource type="Texture2D" uid="uid://bt67mgbrsf3o8" path="res://icon.svg" id="1_tjaqm"]

[sub_resource type="Gradient" id="Gradient_i7r6h"]
interpolation_mode = 1
offsets = PackedFloat32Array(0, 0)
colors = PackedColorArray(1, 1, 1, 0, 0, 0, 0, 1)

[sub_resource type="GradientTexture2D" id="GradientTexture2D_rgcj6"]
gradient = SubResource("Gradient_i7r6h")
width = 512
height = 256
fill_from = Vector2(0, 0.5)
fill_to = Vector2(1, 0.5)
metadata/_snap_enabled = true

[node name="Transition" type="Control"]
layout_mode = 3
anchors_preset = 15
anchor_right = 1.0
anchor_bottom = 1.0
grow_horizontal = 2
grow_vertical = 2
script = ExtResource("1_fq0re")

[node name="TextureProgressBar" type="TextureProgressBar" parent="."]
layout_mode = 1
anchors_preset = -1
anchor_left = 0.00625
anchor_top = 0.809722
anchor_right = 0.10625
anchor_bottom = 0.9875
texture_progress = ExtResource("1_tjaqm")
metadata/_edit_use_anchors_ = true

[node name="TextureRect" type="TextureRect" parent="."]
layout_mode = 1
anchors_preset = 15
anchor_right = 1.0
anchor_bottom = 1.0
grow_horizontal = 2
grow_vertical = 2
texture = SubResource("GradientTexture2D_rgcj6")
